…
```
## Warning: All formats failed to parse. No formats found.
```

```r
data$STATE <- factor(data$STATE)
data$EVTYPE <- factor(data$EVTYPE)
data
```

```
## # A tibble: 902,297 x 7
##      Date  STATE  EVTYPE FATALITIES INJURIES PROPDMG CROPDMG
##    <date> <fctr>  <fctr>      <dbl>    <dbl>   <dbl>   <dbl>
##  1     NA     AL TORNADO          0       15    25.0       0
##  2     NA     AL TORNADO          0        0     2.5       0
##  3     NA     AL TORNADO          0        2    25.0       0
##  4     NA     AL TORNADO          0        2     2.5       0
##  5     NA     AL TORNADO          0        2     2.5       0
##  6     NA     AL TORNADO          0        6     2.5       0
##  7     NA     AL TORNADO          0        1     2.5       0
##  8     NA     AL TORNADO          0        0     2.5       0
##  9     NA     AL TORNADO          1       14    25.0       0
## 10     NA     AL TORNADO          0        0    25.0       0
## # ... with 902,287 more rows
```
…
