…
names(noaa.data.sub) <- c("Date", "Event.Type", "Fatalities", "Injuries", "Property.Damage", 
                          "Crop.Damage", "Property.Damage.Mult", "Crop.Damage.Mult")

# remove original dataset
rm(noaa.data)

noaa.data.sub
```

```
## # A tibble: 254,633 x 8
##                  Date Event.Type Fatalities Injuries Property.Damage
##                 <chr>      <chr>      <dbl>    <dbl>           <dbl>
##  1  4/18/1950 0:00:00    TORNADO          0       15            25.0
##  2  4/18/1950 0:00:00    TORNADO          0        0             2.5
##  3  2/20/1951 0:00:00    TORNADO          0        2            25.0
##  4   6/8/1951 0:00:00    TORNADO          0        2             2.5
##  5 11/15/1951 0:00:00    TORNADO          0        2             2.5
##  6 11/15/1951 0:00:00    TORNADO          0        6             2.5
##  7 11/16/1951 0:00:00    TORNADO          0        1             2.5
##  8  1/22/1952 0:00:00    TORNADO          0        0             2.5
##  9  2/13/1952 0:00:00    TORNADO          1       14            25.0
## 10  2/13/1952 0:00:00    TORNADO          0        0            25.0
## # ... with 254,623 more rows, and 3 more variables: Crop.Damage <dbl>,
## #   Property.Damage.Mult <chr>, Crop.Damage.Mult <chr>
```
…
Convert our dataset from wide to long format:

```r
noaa.data.long <- gather(noaa.data.clean, key = Harm.Type, value = Harm.Value, -Date, -Event.Type) %>% 
                    filter(!is.na(Harm.Value) & Harm.Value > 0) %>% 
                      mutate(Harm.Type = gsub("\\.", " ", Harm.Type))
noaa.data.long
```

```
## # A tibble: 285,851 x 4
##          Date Event.Type  Harm.Type Harm.Value
##        <date>      <chr>      <chr>      <dbl>
##  1 1952-02-13    TORNADO Fatalities          1
##  2 1952-02-13    TORNADO Fatalities          1
##  3 1952-03-22    TORNADO Fatalities          4
##  4 1953-02-20    TORNADO Fatalities          1
##  5 1953-04-18    TORNADO Fatalities          6
##  6 1953-05-01    TORNADO Fatalities          7
##  7 1953-05-01    TORNADO Fatalities          2
##  8 1955-04-24    TORNADO Fatalities          5
##  9 1956-04-15    TORNADO Fatalities         25
## 10 1957-04-08    TORNADO Fatalities          2
## # ... with 285,841 more rows
```
…
####3. Calculate totals 
Calculate totals for each type of weather event and harm:

```r
noaa.data.total <- select(noaa.data.long, -Date) %>% 
                         group_by(Harm.Type, Event.Type) %>% 
                              summarise(Harm.Value = sum(Harm.Value))

noaa.data.total
```

```
## # A tibble: 95 x 3
## # Groups:   Harm.Type [?]
##      Harm.Type Event.Type Harm.Value
##          <chr>      <chr>      <dbl>
##  1 Crop Damage   BLIZZARD  112060000
##  2 Crop Damage       COLD 1424115500
##  3 Crop Damage       FIRE  403281630
##  4 Crop Damage      FLOOD 7275444205
##  5 Crop Damage     FREEZE 1689061000
##  6 Crop Damage      FROST  108000000
##  7 Crop Damage       HAIL 3111712873
##  8 Crop Damage       HEAT  504469280
##  9 Crop Damage  HURRICANE 4005292802
## 10 Crop Damage  LANDSLIDE   20017000
## # ... with 85 more rows
```
…
